module gitlab.com/sudmann/go-hd44780-driver

go 1.11

require (
	github.com/d2r2/go-i2c v0.0.0-20191123181816-73a8a799d6bc
	github.com/d2r2/go-logger v0.0.0-20181221090742-9998a510495e // indirect
	github.com/davecgh/go-spew v1.1.1 // indirect
)
